<svg xmlns="http://www.w3.org/2000/svg" viewBox="0 0 77.18 28.12">
  <defs>
    <style>
      .cls-1 {
        fill: #be9f56;
      }
    </style>
  </defs>
  <title>Element 1</title>
  <g id="Ebene_2" data-name="Ebene 2">
    <g id="Ebene_1-2" data-name="Ebene 1">
      <path class="cls-1" d="M51.78,14.62c-12.19,0-12.19,12.2-12.19,12.2v1.3H38v-1.3c0-12.2-12.2-12.2-12.2-12.2H0V13.07H25.84C38,13.07,38,.88,38,.88V0h1.55V.88c0,12.19,12.19,12.19,12.19,12.19h25.4v1.55Z"/>
    </g>
  </g>
</svg>
