<svg xmlns="http://www.w3.org/2000/svg" viewBox="0 0 795.45 383.93">
  <defs>
    <style>
      .cls-1 {
        fill: #be9f57;
      }

      .cls-2 {
        fill: #fff;
      }
    </style>
  </defs>
  <title>IAM Global Logo right</title>
  <g id="Ebene_2" data-name="Ebene 2">
    <g id="Ebene_1-2" data-name="Ebene 1">
      <g>
        <path class="cls-1" d="M543.65,18.68l.73,20.76c.36,10.75.85,21.86.85,24.18,0,8.43-.36,10.74-2.07,12.09l-4.89.85a1.87,1.87,0,0,0-.12.86A12.17,12.17,0,0,0,538,80h32c0-1.34-.12-2-.12-2.56a2.44,2.44,0,0,1-.12-.86l-5-.85c-1.34-.86-1.71-2.69-2.08-9.53-.48-2.93-1.83-43.35-1.83-48.23,0-8.91.61-11.36,2.08-12.21l4.88-1A2,2,0,0,1,568,4c0-.49.12-1.22.12-2.57H542.91c-.61,3.3-1.34,6.36-2.07,9.16-1.35,4.89-2.69,10.5-3.79,13.43L524.72,57.88,502.13,1.46H478.19A11.36,11.36,0,0,0,478.32,4c0,.37,0,.61.12.73l4.39,1c1.35.85,3.79,5,4.89,7.94l-2.57,46.89c-.61,11.84-1.58,13.92-3.41,14.77l-5.38,1.34c-.12.13-.12.37-.12.74a12.17,12.17,0,0,0-.12,2.56h25.4c0-1.34-.12-2.07-.12-2.56a2,2,0,0,1-.13-.74l-8.67-1.46c-1.58-1.22-2.44-3.3-2.07-14.65l.61-41.4,25.27,61.54,4.4-.61ZM446.2,63.86c1.35,4.28,2.2,7.7,2.2,9.65,0,1.1-.24,1.83-.85,2.2l-6.11,1c-.12.13-.12.37-.12.74A12.17,12.17,0,0,0,441.2,80h33.58c0-1.34-.13-2.07-.13-2.56a2.2,2.2,0,0,1-.12-.74l-4.52-1c-1.09-.86-2.8-3.91-5.86-13.07L442.17,0,428.74,3.79A107.16,107.16,0,0,1,425.57,16l-16,46.15C407,70,404.69,74.49,402.85,75.83l-3.42.85c-.12.13-.12.37-.12.74a12.17,12.17,0,0,0-.12,2.56h22.59c0-1.34-.12-2.07-.12-2.56a2.2,2.2,0,0,1-.12-.74l-7.09-1.34c-.85-.49-1.22-1.46-1.22-3,0-3.18,2.69-13.31,3.3-14.9H444ZM429.84,16.24,442.42,53H418ZM395.77,4.76a2.19,2.19,0,0,1,.12-.73c0-.49.13-1.22.13-2.57H362.56A12.29,12.29,0,0,0,362.68,4c0,.37,0,.61.12.73L369,5.86C370,7.2,370.5,9,370.5,21.12v39.2c0,12.09-.49,13.92-1.47,15.27l-6.23,1.09c-.12.13-.12.37-.12.74a12.17,12.17,0,0,0-.12,2.56H396c0-1.34-.13-2.07-.13-2.56a2.2,2.2,0,0,1-.12-.74l-6.35-1.09c-1-1.35-1.46-3.18-1.46-15.27V21.12c0-12.08.49-13.92,1.46-15.26Z"/>
        <path class="cls-2" d="M410.91,169.63l.25,4.39-2.93.37a26.89,26.89,0,0,1-5.25.37c-15.14,0-22-19.3-22-38.22,0-20.64,7-35.42,20.39-35.42,3.54,0,9.77,1,11,1.59,2.32,2.56,4.88,7.82,6.84,12.58,1.1,2.81,2.32,5.74,3.42,8.79l3.17-.12c.12-2.57.37-5.13.61-7.82.37-4.52.73-10.25.73-15.51l-1-1.09c-2.32-.37-14.9-2.32-24.79-2.32-20.15,0-38.83,15.75-38.83,41.39,0,24.55,16.12,40.42,38.59,40.42a114.11,114.11,0,0,0,26.13-3.79V161.93c0-12.08.24-13.43,1.1-14.28l3.41-.74a2,2,0,0,1,.13-.73c0-.49.12-1.34.12-2.68H402.49a14.38,14.38,0,0,0,.12,2.68c0,.37,0,.61.12.73l6.47,1.1c1.1,1.35,1.47,2.93,1.47,14.9V165c0,.36.12,2.32.24,4.64m87.68-1c.49-5.25,1-12.33,1.34-19.78l-3.05-.37c-10,20-13.56,24.67-20.15,25h-6.84c-4.64-.36-5.74-3.66-5.74-15.87v-39.2c0-12.21.25-13.92,1.59-15.26l8.3-1.1a2,2,0,0,1,.13-.73c0-.49.12-1.22.12-2.57H439.85a11.36,11.36,0,0,0,.13,2.57c0,.36,0,.61.12.73l5.13,1.1c1.1,1.34,1.46,3,1.46,15.14v39.32c0,12.09-.49,13.92-1.46,15.26L440,174c-.13.12-.13.37-.13.74a12.17,12.17,0,0,0-.12,2.56h57.88c.37-2.69.61-5.62,1-8.67M563.92,137c0,18.32-5.25,38-19.54,38s-20-19.66-20-37.49c0-18.68,6-36.39,19.66-36.39,14,0,19.91,17.71,19.91,35.9m18.56-.24c0-23.93-16.61-39.56-38.22-39.56-21,0-38.47,16.48-38.47,40.9C505.79,162.91,522.4,179,544,179s38.47-17.22,38.47-42.25m53.74,19.81c0,11.6-5.12,17.47-15.26,17.47h-4.4c-3.41-1-4.27-2.93-4.27-16V138.28h7.21c9.89,0,16.72,6,16.72,18.31m-3.9-37c0,10.26-3.67,15-12.34,15h-7.69V102.87h5.86c8.31,0,14.17,5.49,14.17,16.72M633.54,135v-.37c10.13-2.07,17-7.44,17-17.21,0-14.53-15.63-18.2-31.63-18.2H587.75a12.29,12.29,0,0,0,.12,2.57c0,.36,0,.61.12.73l5.37,1.1c1,1.34,1.35,3.17,1.35,15.26v39.2c0,12.09-.37,13.92-1.35,15.26l-5.37,1.1c-.12.12-.12.37-.12.73a12.35,12.35,0,0,0-.12,2.57h33.7c17.95,0,33-5.74,33-23,0-13.06-9.77-18.19-20.88-19.78m65.69,15.75H674.81L686.66,114Zm-1.22,27h33.58c0-1.34-.12-2.08-.12-2.57a2.16,2.16,0,0,1-.12-.73l-4.52-1c-1.1-.86-2.81-3.91-5.86-13.07L699,97.74l-13.43,3.78a106.22,106.22,0,0,1-3.18,12.21l-16,46.16c-2.57,7.82-4.89,12.33-6.72,13.68l-3.42.85c-.12.12-.12.37-.12.73a12.35,12.35,0,0,0-.12,2.57H678.6c0-1.34-.13-2.08-.13-2.57a2.16,2.16,0,0,1-.12-.73l-7.08-1.34c-.86-.49-1.22-1.47-1.22-3.05,0-3.18,2.69-13.31,3.3-14.9h27.47l2.2,6.47c1.34,4.27,2.2,7.69,2.2,9.65,0,1.1-.25,1.83-.86,2.2l-6.1,1c-.13.12-.13.37-.13.73a12.35,12.35,0,0,0-.12,2.57m97.44-28.45-3.05-.37c-10,20-13.55,24.67-20.15,25h-6.83c-4.64-.36-5.74-3.66-5.74-15.87v-39.2c0-12.21.24-13.92,1.58-15.26l8.31-1.1a2.16,2.16,0,0,1,.12-.73c0-.49.12-1.22.12-2.57H735.38a12.29,12.29,0,0,0,.12,2.57c0,.36,0,.61.12.73l5.13,1.1c1.1,1.34,1.46,3.05,1.46,15.14v39.32c0,12.09-.48,13.92-1.46,15.26l-5.25,1.1c-.12.12-.12.37-.12.73a11.41,11.41,0,0,0-.13,2.57h57.88c.37-2.69.61-5.62,1-8.67.49-5.25,1-12.33,1.34-19.78"/>
        <g>
          <path class="cls-2" d="M788.73,293.59a2.05,2.05,0,0,0,.53.83,2,2,0,0,0,.79.44,3.34,3.34,0,0,0,1,.14,3.31,3.31,0,0,0,1-.14,2.12,2.12,0,0,0,.79-.44,2.3,2.3,0,0,0,.54-.83,4.16,4.16,0,0,0,0-2.55,2.34,2.34,0,0,0-.54-.82,2.12,2.12,0,0,0-.79-.44,3.3,3.3,0,0,0-1-.13,3.35,3.35,0,0,0-1,.13,2,2,0,0,0-.79.44,2.08,2.08,0,0,0-.53.82,4.37,4.37,0,0,0,0,2.55m-8.68,1.14a7.75,7.75,0,0,0,2.16-1,4.09,4.09,0,0,0,1.29-1.26,2.38,2.38,0,0,0,.43-1.28,1.52,1.52,0,0,0-.24-.86,1.2,1.2,0,0,0-.51-.48,5,5,0,0,1-.9,1,6.23,6.23,0,0,1-1.26.87,7.12,7.12,0,0,1-1.59.62,7.53,7.53,0,0,1-1.89.23,6.2,6.2,0,0,1-2.48-.47,4.54,4.54,0,0,1-1.82-1.47,7.51,7.51,0,0,1-1.14-2.55,16.9,16.9,0,0,1-.43-3.71h13.12v-1.81a13.55,13.55,0,0,0-.56-4.08,8.15,8.15,0,0,0-1.63-3,6.76,6.76,0,0,0-2.58-1.78,9.43,9.43,0,0,0-3.42-.59,7.87,7.87,0,0,0-6.47,2.79q-2.26,2.79-2.27,8.31a15.3,15.3,0,0,0,.63,4.57,9.31,9.31,0,0,0,1.8,3.39,7.53,7.53,0,0,0,2.87,2.11,9.81,9.81,0,0,0,3.84.72,11,11,0,0,0,3-.38m-1.52-18.9a3.73,3.73,0,0,1,1.32,1.43,7.26,7.26,0,0,1,.73,2.21,16.62,16.62,0,0,1,.23,2.85h-9.06a10.75,10.75,0,0,1,1.39-5.21,3.84,3.84,0,0,1,3.38-1.78,3.79,3.79,0,0,1,2,.5m-17.64,18.94a7.22,7.22,0,0,0,2.09-.87,4,4,0,0,0,1.26-1.21,2.54,2.54,0,0,0,.42-1.35,2,2,0,0,0-.19-.92,1.8,1.8,0,0,0-.48-.62,5.12,5.12,0,0,1-2,2,6.33,6.33,0,0,1-3.19.77,5.1,5.1,0,0,1-4.57-2.06q-1.4-2.06-1.4-6.25a23.24,23.24,0,0,1,.35-4.39,8.15,8.15,0,0,1,1-2.78,3.72,3.72,0,0,1,1.57-1.47,4.85,4.85,0,0,1,2-.42,3.35,3.35,0,0,1,1.64.36,2.6,2.6,0,0,1,1,1A4.23,4.23,0,0,1,761,278a9.75,9.75,0,0,1,.15,1.75,5,5,0,0,0,2.64-.56,2.08,2.08,0,0,0,.88-1.92,2.75,2.75,0,0,0-.61-1.78,4.72,4.72,0,0,0-1.6-1.26,8.5,8.5,0,0,0-2.2-.74,12.72,12.72,0,0,0-2.45-.24,10.85,10.85,0,0,0-3.48.54,6.58,6.58,0,0,0-2.79,1.82,8.84,8.84,0,0,0-1.84,3.42,17.71,17.71,0,0,0-.67,5.28,15.89,15.89,0,0,0,.67,5,9,9,0,0,0,1.85,3.36,7.14,7.14,0,0,0,2.85,1.91,10.3,10.3,0,0,0,3.62.61,11,11,0,0,0,2.92-.34M734,293.07a8.12,8.12,0,0,1-1.24-.09,2.51,2.51,0,0,1-1-.35,1.92,1.92,0,0,1-.71-.8,3.23,3.23,0,0,1-.25-1.39v-8.32a11.89,11.89,0,0,1,.24-2.42,6.16,6.16,0,0,1,.79-2,4.14,4.14,0,0,1,1.48-1.4,4.45,4.45,0,0,1,2.26-.52,5.29,5.29,0,0,1,2,.35,3.22,3.22,0,0,1,1.33,1.05,4.48,4.48,0,0,1,.74,1.7,9.82,9.82,0,0,1,.23,2.28v13.61h6.87v-1.66h-.13a7.55,7.55,0,0,1-1.21-.09,2.29,2.29,0,0,1-1-.4,2,2,0,0,1-.62-.86,4,4,0,0,1-.22-1.48v-9.31a11.9,11.9,0,0,0-.45-3.48,6.43,6.43,0,0,0-1.31-2.4,5.28,5.28,0,0,0-2.08-1.38,8,8,0,0,0-2.78-.45,11.52,11.52,0,0,0-1.8.14,5.56,5.56,0,0,0-1.61.54,5.62,5.62,0,0,0-1.45,1.1,8.62,8.62,0,0,0-1.3,1.8h-.19l-.52-3.2h-6.37v1.66h.12a8.12,8.12,0,0,1,1.24.09,2.83,2.83,0,0,1,1,.39,2,2,0,0,1,.7.82,3.19,3.19,0,0,1,.26,1.39v12.29a3.57,3.57,0,0,1-.26,1.48,2,2,0,0,1-.69.86,2.57,2.57,0,0,1-1,.4,8.3,8.3,0,0,1-1.26.09h-.33v1.66h10.6v-1.66Zm-21.73-17.53a2.49,2.49,0,0,1,1.1,1,3.78,3.78,0,0,1,.5,1.54A14.58,14.58,0,0,1,714,280v2.36l-3.27.12c-3,.09-5.27.64-6.75,1.65a5.26,5.26,0,0,0-2.23,4.66,7.64,7.64,0,0,0,.46,2.8,5.18,5.18,0,0,0,1.28,2,5.08,5.08,0,0,0,1.94,1.16,7.64,7.64,0,0,0,2.43.37,6.87,6.87,0,0,0,2.11-.28,5.24,5.24,0,0,0,1.57-.78,7.1,7.1,0,0,0,1.27-1.19c.38-.46.78-1,1.19-1.52h.33l.61,3.39h5.33v-1.66h-.11a4.18,4.18,0,0,1-1.13-.13,1.56,1.56,0,0,1-.76-.47,2,2,0,0,1-.42-.86,5.77,5.77,0,0,1-.14-1.37V280a9.84,9.84,0,0,0-.45-3.19,4.88,4.88,0,0,0-1.36-2.1,5.37,5.37,0,0,0-2.25-1.17,12.73,12.73,0,0,0-3.15-.35,17.06,17.06,0,0,0-2.75.21,8.6,8.6,0,0,0-2.26.66,4,4,0,0,0-1.53,1.17,2.72,2.72,0,0,0-.56,1.73,2.12,2.12,0,0,0,.86,1.92,4.59,4.59,0,0,0,2.49.56,10.07,10.07,0,0,1,.13-1.71,3.48,3.48,0,0,1,.53-1.37,2.57,2.57,0,0,1,1.1-.89,4.52,4.52,0,0,1,1.83-.32,4.39,4.39,0,0,1,1.94.36M705.86,287a3.43,3.43,0,0,1,1-1.49,4.81,4.81,0,0,1,1.82-.94,11.47,11.47,0,0,1,2.8-.41L714,284v3.19a6.51,6.51,0,0,1-.37,2.27,4.89,4.89,0,0,1-1,1.74,4.61,4.61,0,0,1-1.66,1.09,5.77,5.77,0,0,1-2.16.39,3,3,0,0,1-2.42-.92,4.17,4.17,0,0,1-.78-2.76,6.35,6.35,0,0,1,.3-2m-31.6,6.1A8.22,8.22,0,0,1,673,293a2.62,2.62,0,0,1-1-.35,1.9,1.9,0,0,1-.7-.8,3.22,3.22,0,0,1-.26-1.39v-8.32a12.66,12.66,0,0,1,.23-2.42,6.36,6.36,0,0,1,.77-2,4,4,0,0,1,1.41-1.4,4.18,4.18,0,0,1,2.17-.52,4.74,4.74,0,0,1,1.92.35,3.07,3.07,0,0,1,1.28,1.05,4.45,4.45,0,0,1,.71,1.7,10.4,10.4,0,0,1,.23,2.28v13.61h6.84v-1.66h-.11a7.55,7.55,0,0,1-1.21-.09,2.29,2.29,0,0,1-1-.4,2,2,0,0,1-.63-.86,4,4,0,0,1-.23-1.48v-8.63a10.9,10.9,0,0,1,.22-2.26,5.49,5.49,0,0,1,.74-1.86,3.79,3.79,0,0,1,1.36-1.28,4.09,4.09,0,0,1,2.07-.47,4.81,4.81,0,0,1,1.92.35,3.2,3.2,0,0,1,1.28,1.05,4.61,4.61,0,0,1,.71,1.7,10.44,10.44,0,0,1,.22,2.28v13.61h6.85v-1.66h-.12a7.64,7.64,0,0,1-1.21-.09,2.3,2.3,0,0,1-1-.4,1.9,1.9,0,0,1-.63-.86,3.8,3.8,0,0,1-.23-1.48v-9.31a11.9,11.9,0,0,0-.45-3.48,6.38,6.38,0,0,0-1.27-2.4,5,5,0,0,0-2-1.38,7.55,7.55,0,0,0-2.69-.45,11.36,11.36,0,0,0-1.78.14,6,6,0,0,0-1.64.54,5.7,5.7,0,0,0-1.47,1.1,7.94,7.94,0,0,0-1.29,1.8h-.32a5.42,5.42,0,0,0-1-1.67,5.09,5.09,0,0,0-1.32-1.1,5.61,5.61,0,0,0-1.61-.62,8.35,8.35,0,0,0-1.83-.19,10.76,10.76,0,0,0-1.74.14,5.56,5.56,0,0,0-1.56.54,5.38,5.38,0,0,0-1.39,1.1,8.56,8.56,0,0,0-1.25,1.8h-.19l-.52-3.2h-6.18v1.66h.12a7.64,7.64,0,0,1,1.21.09,2.43,2.43,0,0,1,1,.39,1.92,1.92,0,0,1,.64.82,3.56,3.56,0,0,1,.23,1.39v12.29a4.24,4.24,0,0,1-.22,1.48,1.9,1.9,0,0,1-.63.86,2.3,2.3,0,0,1-1,.4,7.72,7.72,0,0,1-1.23.09h-.52v1.66h10.6v-1.66Zm-18.25,0h-1.1a8.22,8.22,0,0,1-1.24-.09,2.62,2.62,0,0,1-1-.35,1.9,1.9,0,0,1-.7-.8,3.22,3.22,0,0,1-.26-1.39v-6.2c0-.5,0-1.06.08-1.67a17,17,0,0,1,.26-1.86,13.91,13.91,0,0,1,.48-1.82,7.34,7.34,0,0,1,.73-1.57,3.94,3.94,0,0,1,1-1.09,2.16,2.16,0,0,1,1.31-.42,1.75,1.75,0,0,1,1.61.73,4.48,4.48,0,0,1,.47,2.35,5.93,5.93,0,0,0,1.69-.2,2.94,2.94,0,0,0,1.13-.58,2.19,2.19,0,0,0,.65-.89,3.25,3.25,0,0,0,.2-1.14,2.44,2.44,0,0,0-1-2.11,5.51,5.51,0,0,0-3.2-.75,6.21,6.21,0,0,0-2.18.33,4.31,4.31,0,0,0-1.45.93,5.47,5.47,0,0,0-1,1.36c-.27.52-.53,1.08-.79,1.67h-.19l-.75-3.91h-6.06v1.66h.12a8.22,8.22,0,0,1,1.24.09,2.83,2.83,0,0,1,1,.39,2,2,0,0,1,.7.82A3.19,3.19,0,0,1,648,278v12.29a3.57,3.57,0,0,1-.26,1.48,2.16,2.16,0,0,1-.69.86,2.57,2.57,0,0,1-1,.4,8.49,8.49,0,0,1-1.26.09h-.12v1.66H656Zm-28-12.79a8.44,8.44,0,0,1,.92-2.76,4.27,4.27,0,0,1,1.65-1.67,6,6,0,0,1,5,0,4.26,4.26,0,0,1,1.67,1.67,8.44,8.44,0,0,1,.92,2.76,22.8,22.8,0,0,1,.29,3.85,23.18,23.18,0,0,1-.28,3.86,8.46,8.46,0,0,1-.91,2.8,4.38,4.38,0,0,1-1.66,1.7,5,5,0,0,1-2.5.58,5,5,0,0,1-2.51-.58,4.4,4.4,0,0,1-1.67-1.7A8.45,8.45,0,0,1,628,288a22.08,22.08,0,0,1-.29-3.86,21.81,21.81,0,0,1,.29-3.85m13.66-1a9.23,9.23,0,0,0-1.8-3.41,7.32,7.32,0,0,0-2.88-2,10.5,10.5,0,0,0-3.83-.66c-3.05,0-5.36.9-6.91,2.69s-2.34,4.53-2.34,8.22a17,17,0,0,0,.62,4.83,9.3,9.3,0,0,0,1.81,3.44,7.37,7.37,0,0,0,2.88,2,10.26,10.26,0,0,0,3.83.67q4.53,0,6.89-2.71t2.36-8.27a16.43,16.43,0,0,0-.63-4.82m-22.15,13.76a8.36,8.36,0,0,1-1.25-.09,2.55,2.55,0,0,1-1-.4,2,2,0,0,1-.69-.86,3.42,3.42,0,0,1-.26-1.48V275.47h5.56V273.6h-5.56v-2.33a15.6,15.6,0,0,1,.14-2.19,5,5,0,0,1,.49-1.59,2.4,2.4,0,0,1,.92-1,3.2,3.2,0,0,1,2.66-.06,2.22,2.22,0,0,1,.8.72,2.77,2.77,0,0,1,.42,1,5,5,0,0,1,.13,1.16,5.89,5.89,0,0,0,1.3-.14,3.37,3.37,0,0,0,1-.43,2,2,0,0,0,.67-.69,1.86,1.86,0,0,0,.24-.95,2.25,2.25,0,0,0-.29-1.12,2.37,2.37,0,0,0-.93-.86,5.36,5.36,0,0,0-1.7-.57,13.8,13.8,0,0,0-2.6-.2,8.3,8.3,0,0,0-2.91.47,5.78,5.78,0,0,0-2.19,1.39,6.43,6.43,0,0,0-1.39,2.27,9.3,9.3,0,0,0-.48,3.12v2H609v1.87h3.59v14.77a3.42,3.42,0,0,1-.26,1.48,2,2,0,0,1-.69.86,2.57,2.57,0,0,1-1,.4,8.3,8.3,0,0,1-1.26.09h-.52v1.66H621v-1.66Zm-18.6,0h-1.09a8.12,8.12,0,0,1-1.24-.09,2.57,2.57,0,0,1-1-.35,1.83,1.83,0,0,1-.7-.8,3.08,3.08,0,0,1-.26-1.39v-6.2c0-.5,0-1.06.07-1.67a17,17,0,0,1,.26-1.86,13.91,13.91,0,0,1,.48-1.82,7.86,7.86,0,0,1,.73-1.57,3.94,3.94,0,0,1,1-1.09,2.2,2.2,0,0,1,1.31-.42,1.78,1.78,0,0,1,1.62.73,4.49,4.49,0,0,1,.46,2.35,5.89,5.89,0,0,0,1.69-.2,3,3,0,0,0,1.14-.58,2.16,2.16,0,0,0,.64-.89,3,3,0,0,0,.2-1.14,2.43,2.43,0,0,0-1-2.11,5.55,5.55,0,0,0-3.21-.75,6.15,6.15,0,0,0-2.17.33,4.21,4.21,0,0,0-1.45.93,5.47,5.47,0,0,0-1,1.36c-.27.52-.54,1.08-.79,1.67h-.2l-.75-3.91H589.5v1.66h.12a8.12,8.12,0,0,1,1.24.09,2.83,2.83,0,0,1,1,.39,2,2,0,0,1,.7.82,3.05,3.05,0,0,1,.26,1.39v12.29a3.42,3.42,0,0,1-.26,1.48,2,2,0,0,1-.69.86,2.57,2.57,0,0,1-1,.4,8.3,8.3,0,0,1-1.26.09h-.12v1.66h11.37Zm-19,1.66a8,8,0,0,0,2.17-1,4.16,4.16,0,0,0,1.28-1.26,2.38,2.38,0,0,0,.43-1.28,1.52,1.52,0,0,0-.24-.86,1.2,1.2,0,0,0-.51-.48,5,5,0,0,1-.9,1,6.23,6.23,0,0,1-1.26.87,7.22,7.22,0,0,1-1.58.62,7.67,7.67,0,0,1-1.9.23,6.2,6.2,0,0,1-2.48-.47,4.54,4.54,0,0,1-1.82-1.47,7.32,7.32,0,0,1-1.13-2.55,16.26,16.26,0,0,1-.44-3.71h13.12v-1.81a13.55,13.55,0,0,0-.56-4.08,8,8,0,0,0-1.63-3,6.61,6.61,0,0,0-2.58-1.78,9.43,9.43,0,0,0-3.42-.59A7.87,7.87,0,0,0,572,276q-2.26,2.79-2.27,8.31a15.3,15.3,0,0,0,.63,4.57,9.62,9.62,0,0,0,1.8,3.39,7.53,7.53,0,0,0,2.87,2.11,9.81,9.81,0,0,0,3.84.72,11,11,0,0,0,3-.38m-1.52-18.9a3.66,3.66,0,0,1,1.32,1.43,7.26,7.26,0,0,1,.73,2.21,16.62,16.62,0,0,1,.23,2.85h-9.06a10.64,10.64,0,0,1,1.4-5.21,4.15,4.15,0,0,1,5.38-1.28m-26.74-7.35h2.67a9,9,0,0,1,2.84.4,4.39,4.39,0,0,1,1.89,1.2,4.86,4.86,0,0,1,1.06,2,11.13,11.13,0,0,1,.33,2.88,11.74,11.74,0,0,1-.38,3.18,5,5,0,0,1-1.18,2.16,4.72,4.72,0,0,1-2.08,1.21,10.9,10.9,0,0,1-3.06.37h-2.09Zm4.54,26.25v-1.66h-1.31a8.12,8.12,0,0,1-1.24-.09,2.57,2.57,0,0,1-1-.35,1.83,1.83,0,0,1-.7-.8,3.08,3.08,0,0,1-.26-1.39v-6.66h2.48a14.52,14.52,0,0,0,4.94-.74,8.91,8.91,0,0,0,3.27-2,7.16,7.16,0,0,0,1.8-2.86,10.31,10.31,0,0,0,.55-3.37,9.51,9.51,0,0,0-.59-3.44,6.58,6.58,0,0,0-1.78-2.59,8,8,0,0,0-3-1.63,14.52,14.52,0,0,0-4.31-.57H545.94v1.65h.5a8.12,8.12,0,0,1,1.24.09,2.45,2.45,0,0,1,1,.38,1.92,1.92,0,0,1,.7.81,3.12,3.12,0,0,1,.26,1.4v19.31a3.59,3.59,0,0,1-.25,1.48,1.87,1.87,0,0,1-.69.86,2.61,2.61,0,0,1-1,.4,8.3,8.3,0,0,1-1.26.09h-.5v1.66Zm-37.77-18.29a3.54,3.54,0,0,1,5.46,0,7.49,7.49,0,0,1,.81,3.93,11.77,11.77,0,0,1-.19,2.22,4,4,0,0,1-.6,1.53,2.67,2.67,0,0,1-1.09.88,4.1,4.1,0,0,1-1.63.29,3.14,3.14,0,0,1-2.74-1.17,6.47,6.47,0,0,1-.83-3.7,7.62,7.62,0,0,1,.81-3.95m-2.74,19.84a3,3,0,0,1,1-1.13,3.79,3.79,0,0,1,1.39-.55,8.46,8.46,0,0,1,1.61-.14h3.86a9.84,9.84,0,0,1,1.73.13,3.41,3.41,0,0,1,1.26.47,2.07,2.07,0,0,1,.77.93,3.56,3.56,0,0,1,.26,1.49,5.59,5.59,0,0,1-.32,1.91,3.46,3.46,0,0,1-1.14,1.51,6,6,0,0,1-2.18,1,14.11,14.11,0,0,1-3.49.36,8.31,8.31,0,0,1-2.49-.31,4,4,0,0,1-1.55-.85,2.84,2.84,0,0,1-.81-1.29,5.22,5.22,0,0,1-.23-1.61,4.37,4.37,0,0,1,.36-1.91m16.11-22.63a1.68,1.68,0,0,0-.43-.65,2,2,0,0,0-.72-.45,2.9,2.9,0,0,0-1-.16,3.47,3.47,0,0,0-1.22.21,5.17,5.17,0,0,0-1,.53,6,6,0,0,0-.87.69c-.25.25-.48.48-.67.69a3.11,3.11,0,0,0-.76-.48,6.5,6.5,0,0,0-1.06-.42,8.64,8.64,0,0,0-1.28-.29,10.51,10.51,0,0,0-4.65.4,5.83,5.83,0,0,0-3.7,3.73,9.65,9.65,0,0,0-.46,3.06,7.5,7.5,0,0,0,.24,1.9,6.47,6.47,0,0,0,.7,1.71A5.71,5.71,0,0,0,518,285.5a5,5,0,0,0,1.51.95,6.48,6.48,0,0,0-2,1.67,3.39,3.39,0,0,0-.62,2,3.23,3.23,0,0,0,.2,1.15,3,3,0,0,0,.5.92,3.27,3.27,0,0,0,.69.7,4.26,4.26,0,0,0,.79.46,7.79,7.79,0,0,0-1.87.56,5.68,5.68,0,0,0-1.57,1,4.6,4.6,0,0,0-1.08,1.48,4.73,4.73,0,0,0-.41,2,5,5,0,0,0,2,4.23q2,1.51,6.16,1.52a18.15,18.15,0,0,0,4.64-.52,9.5,9.5,0,0,0,3.27-1.47,6,6,0,0,0,1.91-2.32,7.21,7.21,0,0,0,.62-3.06,7.42,7.42,0,0,0-.35-2.35,4.65,4.65,0,0,0-1.14-1.87,5.29,5.29,0,0,0-2-1.22,8.79,8.79,0,0,0-3-.44h-4.46a9.66,9.66,0,0,1-1-.05,2.23,2.23,0,0,1-.78-.21,1.2,1.2,0,0,1-.51-.46,1.42,1.42,0,0,1-.18-.77,2.07,2.07,0,0,1,.15-.8,2.23,2.23,0,0,1,.41-.66,3.88,3.88,0,0,1,.61-.52,7.33,7.33,0,0,1,.73-.42l.4.05.54,0,.58,0h.52a8.82,8.82,0,0,0,3.13-.51,6.1,6.1,0,0,0,2.21-1.42A6,6,0,0,0,530,283.1a9,9,0,0,0,0-5.53,7.09,7.09,0,0,0-1.11-1.95,2.93,2.93,0,0,1,.79-.36,3.16,3.16,0,0,1,.9-.12,1.41,1.41,0,0,1,.66.13,1.12,1.12,0,0,1,.39.32,1.25,1.25,0,0,1,.2.44,1.76,1.76,0,0,1,.06.46,2.38,2.38,0,0,0,.93-.17,1.6,1.6,0,0,0,.65-.44,1.81,1.81,0,0,0,.37-.65,2.36,2.36,0,0,0,.13-.8,2.08,2.08,0,0,0-.15-.78m-34.41,19.42a8.22,8.22,0,0,1-1.24-.09,2.62,2.62,0,0,1-1-.35,1.9,1.9,0,0,1-.7-.8,3.22,3.22,0,0,1-.26-1.39v-8.32a11.89,11.89,0,0,1,.24-2.42,6.17,6.17,0,0,1,.8-2,4,4,0,0,1,1.47-1.4,4.47,4.47,0,0,1,2.26-.52,5.22,5.22,0,0,1,2,.35,3.25,3.25,0,0,1,1.34,1.05,4.48,4.48,0,0,1,.74,1.7,10.4,10.4,0,0,1,.23,2.28v13.61h6.87v-1.66H512a7.64,7.64,0,0,1-1.21-.09,2.3,2.3,0,0,1-1-.4,1.9,1.9,0,0,1-.63-.86,4.24,4.24,0,0,1-.22-1.48v-9.31a11.9,11.9,0,0,0-.45-3.48,6.29,6.29,0,0,0-1.31-2.4,5.24,5.24,0,0,0-2.07-1.38,8.07,8.07,0,0,0-2.78-.45,11.52,11.52,0,0,0-1.8.14,5.72,5.72,0,0,0-1.62.54,5.42,5.42,0,0,0-1.44,1.1,8.28,8.28,0,0,0-1.3,1.8H496l-.52-3.2h-6.37v1.66h.11a8.36,8.36,0,0,1,1.25.09,2.71,2.71,0,0,1,1,.39,2,2,0,0,1,.71.82,3.19,3.19,0,0,1,.26,1.39v12.29a3.57,3.57,0,0,1-.26,1.48,2.09,2.09,0,0,1-.7.86,2.45,2.45,0,0,1-1,.4,8.3,8.3,0,0,1-1.26.09h-.32v1.66h10.6v-1.66Zm-21-24.7a2,2,0,0,0,.48.75,1.81,1.81,0,0,0,.71.41,2.82,2.82,0,0,0,.89.13,2.63,2.63,0,0,0,.86-.13,1.74,1.74,0,0,0,.71-.41,2,2,0,0,0,.48-.75,3.8,3.8,0,0,0,0-2.31,2,2,0,0,0-.48-.75,1.62,1.62,0,0,0-.71-.4,2.93,2.93,0,0,0-.86-.12,3.14,3.14,0,0,0-.89.12,1.68,1.68,0,0,0-.71.4,2,2,0,0,0-.48.75,4,4,0,0,0,0,2.31M475,293.07v1.66h11.2v-1.66h-.52a8.45,8.45,0,0,1-1.25-.09,2.55,2.55,0,0,1-1-.4,2,2,0,0,1-.69-.86,3.57,3.57,0,0,1-.26-1.48V273.6h-7v1.66h.11a8.12,8.12,0,0,1,1.24.09,2.7,2.7,0,0,1,1,.39,2,2,0,0,1,.71.82,3.19,3.19,0,0,1,.26,1.39v12.49a3.22,3.22,0,0,1-.26,1.39,1.92,1.92,0,0,1-.71.8,2.51,2.51,0,0,1-1,.35,8.12,8.12,0,0,1-1.24.09Zm-13.75,0v1.66h11.17v-1.66H472a8.3,8.3,0,0,1-1.26-.09,2.67,2.67,0,0,1-1-.4,2,2,0,0,1-.69-.86,3.59,3.59,0,0,1-.25-1.48V264.79h-7.44v1.66h.5a8.34,8.34,0,0,1,1.24.08,2.5,2.5,0,0,1,1,.38,2.07,2.07,0,0,1,.7.81,3.27,3.27,0,0,1,.26,1.4v21.12a3.57,3.57,0,0,1-.26,1.48,2.16,2.16,0,0,1-.69.86,2.57,2.57,0,0,1-1,.4,8.49,8.49,0,0,1-1.26.09Zm-8.61-16.81a3.88,3.88,0,0,1,1.52,1.56,8.1,8.1,0,0,1,.86,2.6,25,25,0,0,1,0,7.33,8.64,8.64,0,0,1-.86,2.67,4.14,4.14,0,0,1-1.5,1.62,4.2,4.2,0,0,1-2.22.55,5.43,5.43,0,0,1-2.59-.55,4.08,4.08,0,0,1-1.65-1.62,7.71,7.71,0,0,1-.89-2.66,22.89,22.89,0,0,1-.26-3.63,23.55,23.55,0,0,1,.26-3.72,7.41,7.41,0,0,1,.88-2.61,3.88,3.88,0,0,1,1.64-1.55,5.77,5.77,0,0,1,2.57-.51,4.5,4.5,0,0,1,2.24.52m5.95,3a9.63,9.63,0,0,0-1.55-3.4,6.22,6.22,0,0,0-2.52-2,8.67,8.67,0,0,0-3.45-.64,7,7,0,0,0-2.07.28,5.67,5.67,0,0,0-2.95,2,10,10,0,0,0-1,1.63h-.15c0-.65.05-1.29.07-1.9s.05-1.1.06-1.69,0-1.1,0-1.55v-7.23h-7.25v1.66h.31a8.25,8.25,0,0,1,1.24.08,2.5,2.5,0,0,1,1,.38,2,2,0,0,1,.7.81,3.27,3.27,0,0,1,.26,1.4v21.12a3.57,3.57,0,0,1-.26,1.48,2.07,2.07,0,0,1-.69.86,2.57,2.57,0,0,1-1,.4,8.3,8.3,0,0,1-1.26.09h-.31v1.66h6.31l.69-3.08h.25a7.36,7.36,0,0,0,1,1.4,6,6,0,0,0,1.31,1.1,6.21,6.21,0,0,0,1.66.71,7.81,7.81,0,0,0,2.06.25,8.67,8.67,0,0,0,3.45-.64,6.19,6.19,0,0,0,2.52-2,9.49,9.49,0,0,0,1.55-3.42,20.29,20.29,0,0,0,.52-4.92,20,20,0,0,0-.52-4.89m-31.84-3.7a2.52,2.52,0,0,1,1.11,1,3.94,3.94,0,0,1,.5,1.54,14.58,14.58,0,0,1,.12,1.95v2.36l-3.27.12q-4.53.14-6.76,1.65a5.26,5.26,0,0,0-2.23,4.66,7.86,7.86,0,0,0,.46,2.8,5.43,5.43,0,0,0,1.28,2,5.2,5.2,0,0,0,1.95,1.16,7.64,7.64,0,0,0,2.43.37,6.91,6.91,0,0,0,2.11-.28,5.19,5.19,0,0,0,1.56-.78,6.48,6.48,0,0,0,1.27-1.19c.39-.46.79-1,1.2-1.52h.32l.62,3.39h5.33v-1.66h-.12a4.1,4.1,0,0,1-1.12-.13,1.52,1.52,0,0,1-.76-.47,1.89,1.89,0,0,1-.43-.86,5.83,5.83,0,0,1-.13-1.37V280a9.84,9.84,0,0,0-.45-3.19,5,5,0,0,0-1.36-2.1,5.37,5.37,0,0,0-2.25-1.17,12.82,12.82,0,0,0-3.16-.35,17.15,17.15,0,0,0-2.75.21,8.72,8.72,0,0,0-2.26.66,4.16,4.16,0,0,0-1.53,1.17,2.71,2.71,0,0,0-.55,1.73,2.11,2.11,0,0,0,.85,1.92,4.59,4.59,0,0,0,2.49.56,10,10,0,0,1,.14-1.71,3.33,3.33,0,0,1,.53-1.37,2.6,2.6,0,0,1,1.09-.89,4.53,4.53,0,0,1,1.84-.32,4.34,4.34,0,0,1,1.93.36M420.38,287a3.43,3.43,0,0,1,1-1.49,4.81,4.81,0,0,1,1.82-.94,11.47,11.47,0,0,1,2.8-.41l2.52-.12v3.19a6.75,6.75,0,0,1-.37,2.27,4.77,4.77,0,0,1-1.05,1.74,4.49,4.49,0,0,1-1.65,1.09,5.78,5.78,0,0,1-2.17.39,3,3,0,0,1-2.41-.92,4.17,4.17,0,0,1-.78-2.76,6.35,6.35,0,0,1,.3-2m-19.81,6.1a8.32,8.32,0,0,1-1.24-.09,2.62,2.62,0,0,1-1-.35,2,2,0,0,1-.7-.8,3.22,3.22,0,0,1-.26-1.39v-8.32a11.89,11.89,0,0,1,.24-2.42,6.17,6.17,0,0,1,.8-2,4,4,0,0,1,1.47-1.4,4.5,4.5,0,0,1,2.26-.52,5.22,5.22,0,0,1,2,.35,3.18,3.18,0,0,1,1.34,1.05,4.48,4.48,0,0,1,.74,1.7,9.82,9.82,0,0,1,.23,2.28v13.61h6.87v-1.66h-.13A7.77,7.77,0,0,1,412,293a2.3,2.3,0,0,1-1-.4,1.81,1.81,0,0,1-.62-.86,4,4,0,0,1-.22-1.48v-9.31a11.88,11.88,0,0,0-.46-3.48,6.28,6.28,0,0,0-1.3-2.4,5.35,5.35,0,0,0-2.08-1.38,8,8,0,0,0-2.78-.45,11.52,11.52,0,0,0-1.8.14,5.72,5.72,0,0,0-1.62.54,5.58,5.58,0,0,0-1.44,1.1,8.28,8.28,0,0,0-1.3,1.8h-.19l-.52-3.2H390.3v1.66h.12a8.22,8.22,0,0,1,1.24.09,2.83,2.83,0,0,1,1,.39,2,2,0,0,1,.7.82,3.19,3.19,0,0,1,.26,1.39v12.29a3.57,3.57,0,0,1-.26,1.48,2,2,0,0,1-.69.86,2.57,2.57,0,0,1-1,.4,8.3,8.3,0,0,1-1.26.09h-.33v1.66h10.6v-1.66ZM373.27,281h9.5v-1.92h-9.5V268.56h6.61a4,4,0,0,1,1.51.26,2.89,2.89,0,0,1,1,.7,3.13,3.13,0,0,1,.64,1,5.11,5.11,0,0,1,.3,1.24l.19,1.7h2l-.19-6.89H365.55v1.65h.5a8.25,8.25,0,0,1,1.26.1,2.6,2.6,0,0,1,1,.39,1.92,1.92,0,0,1,.69.86,3.62,3.62,0,0,1,.25,1.48v19.36a3.08,3.08,0,0,1-.26,1.39,1.83,1.83,0,0,1-.7.8,2.57,2.57,0,0,1-1,.35,8.12,8.12,0,0,1-1.24.09h-.5v1.66h21.13l.26-6.89h-2.05l-.27,1.69a5.06,5.06,0,0,1-.35,1.24,3.33,3.33,0,0,1-.69,1,3.14,3.14,0,0,1-1.11.7,4.26,4.26,0,0,1-1.6.26h-7.6Z"/>
          <path class="cls-2" d="M676.27,233.74H656.18v2.33h20.09Zm-36.85,11.74a8,8,0,0,0,2.16-1,4.09,4.09,0,0,0,1.29-1.26,2.45,2.45,0,0,0,.42-1.27,1.53,1.53,0,0,0-.24-.87,1.27,1.27,0,0,0-.51-.48,5.25,5.25,0,0,1-.89,1,6.85,6.85,0,0,1-1.26.87,7.31,7.31,0,0,1-1.59.62,7.53,7.53,0,0,1-1.89.23,6.25,6.25,0,0,1-2.49-.47,4.58,4.58,0,0,1-1.81-1.47,7.15,7.15,0,0,1-1.14-2.55,16.24,16.24,0,0,1-.43-3.71h13.12v-1.8a13.25,13.25,0,0,0-.57-4.09,8.14,8.14,0,0,0-1.62-2.95,6.87,6.87,0,0,0-2.58-1.78A9.49,9.49,0,0,0,636,224a7.85,7.85,0,0,0-6.46,2.79q-2.26,2.79-2.27,8.31a15.3,15.3,0,0,0,.63,4.57,9.45,9.45,0,0,0,1.79,3.39,7.56,7.56,0,0,0,2.88,2.11,9.77,9.77,0,0,0,3.84.72,11.1,11.1,0,0,0,3-.38m-1.52-18.9a3.81,3.81,0,0,1,1.32,1.43,7.55,7.55,0,0,1,.73,2.21,16.62,16.62,0,0,1,.23,2.85h-9.06a10.68,10.68,0,0,1,1.39-5.21,4.16,4.16,0,0,1,5.39-1.28m-23.73,17.24v1.66h11.18v-1.66h-.5a8.3,8.3,0,0,1-1.26-.09,2.67,2.67,0,0,1-1-.4,2,2,0,0,1-.69-.85,3.67,3.67,0,0,1-.25-1.49V215.54h-7.45v1.66h.5a10,10,0,0,1,1.25.08,2.65,2.65,0,0,1,1,.38,2,2,0,0,1,.7.82,3.19,3.19,0,0,1,.26,1.39V241a3.65,3.65,0,0,1-.26,1.49,2.13,2.13,0,0,1-.7.85,2.45,2.45,0,0,1-1,.4,8.3,8.3,0,0,1-1.26.09ZM611.52,230a9.63,9.63,0,0,0-1.55-3.4,6.22,6.22,0,0,0-2.52-2A8.67,8.67,0,0,0,604,224a7.07,7.07,0,0,0-2.08.28,5.72,5.72,0,0,0-1.65.79,5.61,5.61,0,0,0-1.29,1.24,10,10,0,0,0-1,1.63h-.15l-.41-3.56h-6.88V226h.5a8.22,8.22,0,0,1,1.24.09,2.83,2.83,0,0,1,1,.39,2,2,0,0,1,.7.82,3.19,3.19,0,0,1,.26,1.39v21.74a3.65,3.65,0,0,1-.26,1.49,2.11,2.11,0,0,1-.69.87,2.42,2.42,0,0,1-1,.39,7.31,7.31,0,0,1-1.26.1h-.31v1.65h10.6v-1.65h-.12a8.22,8.22,0,0,1-1.24-.09,2.8,2.8,0,0,1-1-.36,2,2,0,0,1-.7-.81,3.27,3.27,0,0,1-.26-1.4v-3.77c0-.1,0-.25,0-.43s0-.4,0-.63,0-.47,0-.74,0-.51,0-.76c0-.59,0-1.22-.07-1.9H598a7.36,7.36,0,0,0,1,1.4,6,6,0,0,0,1.31,1.1,6.21,6.21,0,0,0,1.66.71,7.81,7.81,0,0,0,2.06.25,8.67,8.67,0,0,0,3.45-.64,6.25,6.25,0,0,0,2.52-2,9.63,9.63,0,0,0,1.55-3.43,20.29,20.29,0,0,0,.52-4.92,20,20,0,0,0-.52-4.89m-5.95-3a3.88,3.88,0,0,1,1.52,1.56,8.1,8.1,0,0,1,.86,2.6,25,25,0,0,1,0,7.33,8.64,8.64,0,0,1-.86,2.67,4.07,4.07,0,0,1-1.5,1.62,4.2,4.2,0,0,1-2.22.55,5.43,5.43,0,0,1-2.59-.55,4,4,0,0,1-1.65-1.62,7.71,7.71,0,0,1-.89-2.66,22.89,22.89,0,0,1-.26-3.63,23.64,23.64,0,0,1,.26-3.72,7.41,7.41,0,0,1,.88-2.61,3.82,3.82,0,0,1,1.64-1.55,5.77,5.77,0,0,1,2.57-.51,4.5,4.5,0,0,1,2.24.52m-31.2,4a8.52,8.52,0,0,1,.92-2.76A4.3,4.3,0,0,1,577,226.6a5.16,5.16,0,0,1,2.5-.55,5.26,5.26,0,0,1,2.51.55,4.3,4.3,0,0,1,1.66,1.67,8.76,8.76,0,0,1,.93,2.76,22.89,22.89,0,0,1,.28,3.85,23.18,23.18,0,0,1-.28,3.86,8.46,8.46,0,0,1-.91,2.8,4.29,4.29,0,0,1-1.65,1.7,5,5,0,0,1-2.5.58,5,5,0,0,1-2.52-.58,4.4,4.4,0,0,1-1.67-1.7,8.45,8.45,0,0,1-.93-2.8,23.1,23.1,0,0,1-.29-3.86,22.8,22.8,0,0,1,.29-3.85m13.67-1a9.24,9.24,0,0,0-1.81-3.41,7.32,7.32,0,0,0-2.88-2,10.46,10.46,0,0,0-3.83-.66q-4.57,0-6.91,2.69t-2.34,8.22a16.59,16.59,0,0,0,.63,4.83,9.29,9.29,0,0,0,1.8,3.44,7.37,7.37,0,0,0,2.88,2,10.26,10.26,0,0,0,3.83.67c3,0,5.32-.9,6.9-2.71s2.35-4.57,2.35-8.27a16.79,16.79,0,0,0-.62-4.82m-26.38,15.42a8,8,0,0,0,2.16-1,4.09,4.09,0,0,0,1.29-1.26,2.45,2.45,0,0,0,.42-1.27,1.53,1.53,0,0,0-.24-.87,1.27,1.27,0,0,0-.51-.48,5.25,5.25,0,0,1-.89,1,6.85,6.85,0,0,1-1.26.87,7.22,7.22,0,0,1-3.48.85,6.25,6.25,0,0,1-2.49-.47,4.58,4.58,0,0,1-1.81-1.47,7.15,7.15,0,0,1-1.14-2.55,16.24,16.24,0,0,1-.43-3.71H566.4v-1.8a13.25,13.25,0,0,0-.57-4.09,8.14,8.14,0,0,0-1.62-2.95,6.87,6.87,0,0,0-2.58-1.78,9.53,9.53,0,0,0-3.43-.59,7.85,7.85,0,0,0-6.46,2.79q-2.26,2.79-2.27,8.31a15.64,15.64,0,0,0,.62,4.57,9.62,9.62,0,0,0,1.8,3.39,7.49,7.49,0,0,0,2.88,2.11,9.74,9.74,0,0,0,3.84.72,11.1,11.1,0,0,0,3-.38m-1.52-18.9a3.71,3.71,0,0,1,1.31,1.43,7.26,7.26,0,0,1,.74,2.21,16.62,16.62,0,0,1,.23,2.85h-9.07a10.78,10.78,0,0,1,1.4-5.21,4.16,4.16,0,0,1,5.39-1.28m-26.75-7.34h2.67a9,9,0,0,1,2.84.39,4.37,4.37,0,0,1,1.9,1.2,4.85,4.85,0,0,1,1.05,2,11.18,11.18,0,0,1,.33,2.88,11.77,11.77,0,0,1-.37,3.18,5,5,0,0,1-1.19,2.16,4.74,4.74,0,0,1-2.07,1.21,11,11,0,0,1-3.06.37h-2.1Zm4.54,26.24v-1.66h-1.31a9.81,9.81,0,0,1-1.24-.08,2.8,2.8,0,0,1-1-.36,1.9,1.9,0,0,1-.7-.8,3.22,3.22,0,0,1-.26-1.39v-6.66h2.48a14.58,14.58,0,0,0,5-.74,9.08,9.08,0,0,0,3.27-2,7.38,7.38,0,0,0,1.8-2.86,10.57,10.57,0,0,0,.54-3.37,9.51,9.51,0,0,0-.58-3.44,6.68,6.68,0,0,0-1.78-2.59,8.09,8.09,0,0,0-3-1.63,14.57,14.57,0,0,0-4.31-.57H525.68V219h.5a8.32,8.32,0,0,1,1.24.09,2.5,2.5,0,0,1,1,.38,2.07,2.07,0,0,1,.7.81,3.27,3.27,0,0,1,.26,1.4V241a3.85,3.85,0,0,1-.25,1.49,2,2,0,0,1-.7.85,2.57,2.57,0,0,1-1,.4,8.49,8.49,0,0,1-1.26.09h-.5v1.66Zm-38-18.29a3.54,3.54,0,0,1,5.46,0,7.49,7.49,0,0,1,.81,3.93,11,11,0,0,1-.19,2.22,4,4,0,0,1-.6,1.53,2.53,2.53,0,0,1-1.09.88,3.93,3.93,0,0,1-1.63.29,3.15,3.15,0,0,1-2.74-1.17,6.53,6.53,0,0,1-.83-3.7,7.62,7.62,0,0,1,.81-3.95M497.2,247a3,3,0,0,1,1-1.13,3.79,3.79,0,0,1,1.39-.55,9.36,9.36,0,0,1,1.61-.14H505a9.84,9.84,0,0,1,1.73.13,3.41,3.41,0,0,1,1.26.47,2.13,2.13,0,0,1,.77.93,3.56,3.56,0,0,1,.26,1.49,5.59,5.59,0,0,1-.32,1.91,3.4,3.4,0,0,1-1.14,1.51,5.73,5.73,0,0,1-2.18,1,14.11,14.11,0,0,1-3.49.36,8.36,8.36,0,0,1-2.49-.31,3.89,3.89,0,0,1-1.55-.85,2.76,2.76,0,0,1-.81-1.28,5.29,5.29,0,0,1-.23-1.62,4.37,4.37,0,0,1,.36-1.91m16.11-22.63a1.68,1.68,0,0,0-.43-.65,2,2,0,0,0-.72-.45,3.14,3.14,0,0,0-1-.16,3.51,3.51,0,0,0-1.22.21,5.17,5.17,0,0,0-1.05.53,5.41,5.41,0,0,0-.86.69c-.26.25-.49.48-.68.69a3.11,3.11,0,0,0-.76-.48,6.16,6.16,0,0,0-1.06-.42,8.64,8.64,0,0,0-1.28-.29,10.51,10.51,0,0,0-4.65.4,6,6,0,0,0-2.31,1.44,5.84,5.84,0,0,0-1.38,2.29,9.36,9.36,0,0,0-.47,3.06,7.5,7.5,0,0,0,.24,1.9,6.83,6.83,0,0,0,.7,1.71,5.71,5.71,0,0,0,1.11,1.38,5,5,0,0,0,1.51.95,6.48,6.48,0,0,0-2,1.67,3.39,3.39,0,0,0-.62,2,3.23,3.23,0,0,0,.2,1.15,3.49,3.49,0,0,0,1.19,1.62,4.26,4.26,0,0,0,.79.46,8.27,8.27,0,0,0-1.87.56,5.68,5.68,0,0,0-1.57,1,4.6,4.6,0,0,0-1.08,1.48,4.73,4.73,0,0,0-.41,2,5,5,0,0,0,2,4.23q2,1.52,6.16,1.52a18.29,18.29,0,0,0,4.65-.52,9.35,9.35,0,0,0,3.26-1.47,5.91,5.91,0,0,0,1.91-2.32,7.22,7.22,0,0,0,.63-3.06,7.42,7.42,0,0,0-.36-2.35,4.65,4.65,0,0,0-1.14-1.87,5.21,5.21,0,0,0-2-1.22,8.79,8.79,0,0,0-3-.44h-4.46a9.66,9.66,0,0,1-1-.05,2.23,2.23,0,0,1-.78-.21,1.2,1.2,0,0,1-.51-.46,1.4,1.4,0,0,1-.18-.76,2.09,2.09,0,0,1,.15-.81,2.36,2.36,0,0,1,.41-.66,3.88,3.88,0,0,1,.61-.52,7.33,7.33,0,0,1,.73-.42l.4,0,.54,0,.58,0h.52a8.82,8.82,0,0,0,3.13-.51,5.9,5.9,0,0,0,2.21-1.42,6,6,0,0,0,1.32-2.14,9,9,0,0,0,0-5.52,7.15,7.15,0,0,0-1.11-2,2.93,2.93,0,0,1,.79-.36,3.16,3.16,0,0,1,.9-.12,1.41,1.41,0,0,1,.66.13,1,1,0,0,1,.39.32,1.09,1.09,0,0,1,.2.44,1.76,1.76,0,0,1,.06.46,2.58,2.58,0,0,0,.93-.16,1.72,1.72,0,0,0,.65-.45,1.67,1.67,0,0,0,.37-.65,2.36,2.36,0,0,0,.13-.8,2.08,2.08,0,0,0-.15-.78M478.9,243.82a9.81,9.81,0,0,1-1.24-.08,2.8,2.8,0,0,1-1-.36,1.9,1.9,0,0,1-.7-.8,3.22,3.22,0,0,1-.26-1.39v-8.31a11.92,11.92,0,0,1,.24-2.43,6.17,6.17,0,0,1,.8-2,4,4,0,0,1,1.47-1.4,4.47,4.47,0,0,1,2.26-.52,5.22,5.22,0,0,1,2,.35,3.25,3.25,0,0,1,1.34,1,4.48,4.48,0,0,1,.74,1.7,10.43,10.43,0,0,1,.23,2.29v13.6h6.87v-1.66h-.14a7.64,7.64,0,0,1-1.21-.09,2.3,2.3,0,0,1-1-.4,1.83,1.83,0,0,1-.62-.85,4.09,4.09,0,0,1-.23-1.49v-9.31a12,12,0,0,0-.45-3.48,6.18,6.18,0,0,0-1.31-2.39,5.16,5.16,0,0,0-2.07-1.39,8.07,8.07,0,0,0-2.78-.45,11.52,11.52,0,0,0-1.8.14,5.72,5.72,0,0,0-1.62.54,5.42,5.42,0,0,0-1.44,1.1,8.53,8.53,0,0,0-1.3,1.8h-.19l-.52-3.2h-6.37V226h.12a8.32,8.32,0,0,1,1.24.09,2.83,2.83,0,0,1,1,.39,2,2,0,0,1,.7.82,3.19,3.19,0,0,1,.26,1.39V241a3.65,3.65,0,0,1-.26,1.49,2.19,2.19,0,0,1-.69.85,2.57,2.57,0,0,1-1,.4,8.49,8.49,0,0,1-1.26.09h-.33v1.66H479v-1.66Zm-21-24.7a2,2,0,0,0,.48.75,1.89,1.89,0,0,0,.71.41,2.82,2.82,0,0,0,.89.13,2.73,2.73,0,0,0,.87-.13,1.78,1.78,0,0,0,.7-.41,2,2,0,0,0,.48-.75,3.8,3.8,0,0,0,0-2.31,2,2,0,0,0-.48-.75,1.64,1.64,0,0,0-.7-.4,3,3,0,0,0-.87-.12,3.14,3.14,0,0,0-.89.12,1.74,1.74,0,0,0-.71.4,2,2,0,0,0-.48.75,4,4,0,0,0,0,2.31m-3.36,24.7v1.66h11.19v-1.66h-.52a8.45,8.45,0,0,1-1.25-.09,2.55,2.55,0,0,1-1-.4,2,2,0,0,1-.69-.85A3.65,3.65,0,0,1,462,241V224.35h-7V226h.11a8.36,8.36,0,0,1,1.25.09,2.71,2.71,0,0,1,1,.39,2,2,0,0,1,.71.82,3.19,3.19,0,0,1,.26,1.39v12.49a3.22,3.22,0,0,1-.26,1.39,1.92,1.92,0,0,1-.71.8,2.69,2.69,0,0,1-1,.36,10,10,0,0,1-1.25.08Zm-9.28-14.14a17.84,17.84,0,0,1,2.85-2.71,4.54,4.54,0,0,1,2.69-1v-1.66h-8.7V226a5.64,5.64,0,0,1,1.45.14.61.61,0,0,1,.47.65,2.18,2.18,0,0,1-.09.6,3.34,3.34,0,0,1-.35.72c-.17.27-.39.59-.66.95s-.63.77-1.05,1.25L437,235.7c0-.68.06-1.32.08-1.94s.05-1.09.06-1.64,0-1,0-1.38v-15.2h-7.25v1.66h.3a9.69,9.69,0,0,1,1.24.08,2.54,2.54,0,0,1,1,.38,2,2,0,0,1,.71.82,3.19,3.19,0,0,1,.26,1.39V241a3.65,3.65,0,0,1-.26,1.49,2.13,2.13,0,0,1-.7.85,2.57,2.57,0,0,1-1,.4,8.3,8.3,0,0,1-1.26.09h-.3v1.66h10.6v-1.66h-.12a9.69,9.69,0,0,1-1.24-.08,2.8,2.8,0,0,1-1-.36,1.9,1.9,0,0,1-.7-.8,3.08,3.08,0,0,1-.26-1.39v-3.56l2.9-2.16,3.95,6.18a16.57,16.57,0,0,0,1.5,2.07,4.83,4.83,0,0,0,1.48,1.15,5.63,5.63,0,0,0,1.91.5c.74.07,1.68.11,2.82.11h.56v-1.66h-.12a3.52,3.52,0,0,1-2.33-.83,10.18,10.18,0,0,1-2-2.4l-5.25-7.79Zm-30.91,14.14a9.69,9.69,0,0,1-1.24-.08,2.74,2.74,0,0,1-1-.36,1.83,1.83,0,0,1-.7-.8,3.08,3.08,0,0,1-.26-1.39v-8.31a11.92,11.92,0,0,1,.24-2.43,6.16,6.16,0,0,1,.79-2,4.14,4.14,0,0,1,1.48-1.4,4.47,4.47,0,0,1,2.26-.52,5.26,5.26,0,0,1,2,.35,3.22,3.22,0,0,1,1.33,1,4.48,4.48,0,0,1,.74,1.7,9.82,9.82,0,0,1,.24,2.29v13.6h6.86v-1.66H427a7.55,7.55,0,0,1-1.21-.09,2.2,2.2,0,0,1-1-.4,1.92,1.92,0,0,1-.63-.85,4.11,4.11,0,0,1-.22-1.49v-9.31a12,12,0,0,0-.45-3.48,6.31,6.31,0,0,0-1.31-2.39,5.19,5.19,0,0,0-2.08-1.39,8,8,0,0,0-2.78-.45,11.52,11.52,0,0,0-1.8.14,5.56,5.56,0,0,0-1.61.54,5.62,5.62,0,0,0-1.45,1.1,8.9,8.9,0,0,0-1.3,1.8H411l-.52-3.2h-6.37V226h.12a8.12,8.12,0,0,1,1.24.09,2.83,2.83,0,0,1,1,.39,1.89,1.89,0,0,1,.7.82,3.05,3.05,0,0,1,.26,1.39V241a3.49,3.49,0,0,1-.26,1.49,2,2,0,0,1-.69.85,2.57,2.57,0,0,1-1,.4,8.3,8.3,0,0,1-1.26.09h-.33v1.66h10.6v-1.66Zm-21-24.7a1.8,1.8,0,0,0,.48.75,1.74,1.74,0,0,0,.71.41,3,3,0,0,0,1.75,0,1.71,1.71,0,0,0,.7-.41,2,2,0,0,0,.48-.75,3.61,3.61,0,0,0,0-2.31,2,2,0,0,0-.48-.75,1.59,1.59,0,0,0-.7-.4,3.25,3.25,0,0,0-1.75,0,1.62,1.62,0,0,0-.71.4,1.8,1.8,0,0,0-.48.75,3.8,3.8,0,0,0,0,2.31M390,243.82v1.66h11.2v-1.66h-.52a8.26,8.26,0,0,1-1.25-.09,2.55,2.55,0,0,1-1-.4,2.13,2.13,0,0,1-.7-.85,3.67,3.67,0,0,1-.25-1.49V224.35H390.4V226h.12a8.12,8.12,0,0,1,1.24.09,2.83,2.83,0,0,1,1,.39,2,2,0,0,1,.7.82,3.19,3.19,0,0,1,.26,1.39v12.49a3.22,3.22,0,0,1-.26,1.39,1.9,1.9,0,0,1-.7.8,2.8,2.8,0,0,1-1,.36,9.69,9.69,0,0,1-1.24.08Zm-3.32,1.66.26-8.47h-2.05l-.39,3a5.77,5.77,0,0,1-.3,1.26,3.65,3.65,0,0,1-.62,1.15,3,3,0,0,1-1,.83,3.33,3.33,0,0,1-1.51.31h-7.77V221.68a3.12,3.12,0,0,1,.26-1.4,1.92,1.92,0,0,1,.7-.81,2.45,2.45,0,0,1,1-.38,8.12,8.12,0,0,1,1.24-.09H377v-1.65H365.55V219h.5a8.25,8.25,0,0,1,1.26.1,2.61,2.61,0,0,1,1,.4,1.84,1.84,0,0,1,.69.85,3.62,3.62,0,0,1,.25,1.48V241a3.67,3.67,0,0,1-.25,1.49,1.89,1.89,0,0,1-.69.85,2.61,2.61,0,0,1-1,.4,8.3,8.3,0,0,1-1.26.09h-.5v1.66Z"/>
        </g>
        <path class="cls-1" d="M261.1,151.29,250,110.08H213.06c-23.31,0-36.36,13.07-36.36,36.39V294.72h13.06a14.12,14.12,0,0,0,13.73-11.35h0l29.65-107.8,25.61-17.9a5.21,5.21,0,0,0,2.35-6.38Z"/>
        <path class="cls-1" d="M168.89,146.47c0-23.32-13.14-36.39-36.45-36.39H24.92l74.7,270.06a5.32,5.32,0,0,0,10.22-.11l23.6-85.31h35.45Z"/>
        <path class="cls-1" d="M14,1.47a14,14,0,0,0-14,14,14.21,14.21,0,0,0,.66,4.25l22.12,82.53H132.44c23.31,0,36.45-13.1,36.45-36.4V1.47Z"/>
        <path class="cls-1" d="M247.83,102.26C237,62.34,223.57,12.55,223.56,12.55,222.3,6.5,218.79,1.9,212.48,1.47c0,0-35.78,0-35.78,0V65.86c0,23.3,13.05,36.4,36.36,36.4Z"/>
      </g>
    </g>
  </g>
</svg>
